…
Transformation in ranks
-----------------------

``` r
require(dplyr)
EVAL_LONG <- D %>% group_by(inst) %>% mutate(rank=rank(k,na.last = TRUE)) %>% ungroup()
EVAL_LONG
```

    ## # A tibble: 324 x 7
    ##        alg      inst     k  cost   sec  class  rank
    ##     <fctr>    <fctr> <int> <dbl> <dbl>  <chr> <dbl>
    ##  1 3702445 Golden_20    46  2381 14.40 Golden     6
    ##  2 3702445 Golden_19    39  1783  9.31 Golden     6
    ##  3 3702445 Golden_18    33  1309  5.55 Golden     6
    ##  4 3702445 Golden_17    27   965  3.15 Golden     6
    ##  5 3702445 Golden_16    48  2291 20.38 Golden     6
    ##  6 3702445 Golden_15    39  1781 11.44 Golden     6
    ##  7 3702445 Golden_14    36  1500  6.39 Golden     6
    ##  8 3702445 Golden_13    33  1191  3.41 Golden     6
    ##  9 3702445 Golden_12    24  1455 21.33 Golden     6
    ## 10 3702445 Golden_11    22  1178 12.01 Golden     6
    ## # ... with 314 more rows
…
